sv/fall_detect.vcd
$date
	Tue Dec 16 11:47:48 2025
$end
$version
	Icarus Verilog
$end
$timescale
	1ps
$end
$scope module tb_fall_detect $end
$var wire 1 ! fall_detected $end
$var reg 16 " ax [15:0] $end
$var reg 16 # ay [15:0] $end
$var reg 16 $ az [15:0] $end
$var reg 1 % clk $end
$var reg 1 & data_valid $end
$var reg 32 ' impact_thresh_sq [31:0] $end
$var reg 1 ( rst_n $end
$var reg 32 ) still_thresh_sq [31:0] $end
$scope module dut $end
$var wire 16 * ax [15:0] $end
$var wire 16 + ay [15:0] $end
$var wire 16 , az [15:0] $end
$var wire 1 % clk $end
$var wire 1 & data_valid $end
$var wire 32 - impact_thresh_sq [31:0] $end
$var wire 1 ( rst_n $end
$var wire 32 . still_thresh_sq [31:0] $end
$var reg 32 / ax_sq [31:0] $end
$var reg 32 0 ay_sq [31:0] $end
$var reg 32 1 az_sq [31:0] $end
$var reg 1 ! fall_detected $end
$var reg 32 2 mag_sq [31:0] $end
$var reg 1 3 mag_valid $end
$var reg 2 4 next_state [1:0] $end
$var reg 2 5 state [1:0] $end
$var reg 2 6 timer_cnt [-1:0] $end
$upscope $end
$scope task send_sample $end
$var reg 16 7 x [15:0] $end
$var reg 16 8 y [15:0] $end
$var reg 16 9 z [15:0] $end
$upscope $end
$upscope $end
$enddefinitions $end
#0
$dumpvars
bx 9
bx 8
bx 7
b0 6
b0 5
b0 4
03
b0 2
b0 1
b0 0
b0 /
b100010010101010001000000 .
b10111110101111000010000000000 -
b0 ,
b0 +
b0 *
b100010010101010001000000 )
0(
b10111110101111000010000000000 '
0&
0%
b0 $
b0 #
b0 "
0!
$end
#10000
1%
#20000
0%
#30000
1%
#40000
0%
#50000
1%
#60000
0%
#70000
1%
#80000
0%
#90000
b1111101000 $
b1111101000 ,
b10111011100 #
b10111011100 +
b11111010000 "
b11111010000 *
1&
b1111101000 9
b10111011100 8
b11111010000 7
1(
1%
#100000
0%
#110000
13
b11011101010000001010000 2
b11110100001001000000 1
b1000100101010100010000 0
b1111010000100100000000 /
0&
1%
#120000
0%
#130000
03
1&
1%
#140000
0%
#150000
13
0&
1%
#160000
0%
#170000
03
1&
1%
#180000
0%
#190000
13
0&
1%
#200000
0%
#210000
03
1&
1%
#220000
0%
#230000
13
0&
1%
#240000
0%
#250000
03
1&
1%
#260000
0%
#270000
13
0&
1%
#280000
0%
#290000
03
1&
1%
#300000
0%
#310000
13
0&
1%
#320000
0%
#330000
03
1&
1%
#340000
0%
#350000
13
0&
1%
#360000
0%
#370000
03
1&
1%
#380000
0%
#390000
13
0&
1%
#400000
0%
#410000
03
1&
1%
#420000
0%
#430000
13
0&
1%
#440000
0%
#450000
03
1&
1%
#460000
0%
#470000
13
0&
1%
#480000
0%
#490000
03
b0 $
b0 ,
b0 #
b0 +
b110000110101000 "
b110000110101000 *
1&
b0 9
b0 8
b110000110101000 7
1%
#500000
0%
#510000
b1 4
13
b100101010000001011111001000000 2
b0 1
b0 0
b100101010000001011111001000000 /
0&
1%
#520000
0%
#530000
b0 4
b1 5
03
b1100100 $
b1100100 ,
b11001000 #
b11001000 +
b100101100 "
b100101100 *
1&
b1100100 9
b11001000 8
b100101100 7
1%
#540000
0%
#550000
b10 4
13
b100010001011100000 2
b10011100010000 1
b1001110001000000 0
b10101111110010000 /
0&
1%
#560000
0%
#570000
b0 4
1!
b1 6
b10 5
03
1&
1%
#580000
0%
#590000
13
0&
1%
#600000
0%
#610000
0!
b0 5
03
1%
#620000
0%
#630000
b0 6
1%
